Modeling Project
…
Multiple Linear regression

You will go through two mechanical tasks that demonstrate your ability to run basic types of analysis in R. These tasks will not necessarily be good models and you dont need to worry about the conclusions expressing anything meaningful. Here are the two tasks you need to complete:

Use a numerical response variable, one numerical explanatory variable, and one categorical explanatory variable. Allow R to use the default dummy coding with the categorical variable. Using the total number of people on board by, the total number of fatalities, plus the type of plane that crashed.

AirLM <- lm(Aboard ~ Fatalities + Type, data = Air)

AirLMTidy<-tidy(AirLM)
AirLMTidy

## # A tibble: 2,440 x 5
##    term                             estimate std.error statistic   p.value
##    <chr>                               <dbl>     <dbl>     <dbl>     <dbl>
##  1 (Intercept)                        12.6     15.6        0.810 4.18e-  1
##  2 Fatalities                          0.624    0.0141    44.2   3.00e-323
##  3 TypeAEGK                          -10.8     22.1       -0.488 6.26e-  1
##  4 TypeAermacchi MB-339PAN (3 airc  -11.5     22.1       -0.522 6.02e-  1
##  5 TypeAero Commander 500A           -10.0     22.1       -0.454 6.50e-  1
##  6 TypeAero Commander 500-B          -11.9     22.1       -0.539 5.90e-  1
##  7 TypeAero Commander  520           -10.4     22.1       -0.471 6.38e-  1
##  8 TypeAero Commander 560            -11.9     22.1       -0.539 5.90e-  1
##  9 TypeAero Commander 560-A          -10.8     22.1       -0.488 6.26e-  1
## 10 TypeAero Commander 560-F          -11.5     22.1       -0.522 6.02e-  1
## # ... with 2,430 more rows
…
Interpreting the ANOVA table for the model.

Using the total number of people on board by, the total number of fatalities, plus the type of plane that crashed. We can see that fatalities has a higher f value than our F statistic, and is shown to be significant in predicting the ammount of people who were on board, in the airplane crash data set. Type is also significant, but not as much as Fatalities.

Test for the presence of interaction between the two explanatory variables both graphically and statistically.

Calculating Group means

Location_means <- Air %>%
group_by(Fatalities,Location) %>%
summarize(mean_Fatalities = mean(Fatalities))
Location_means

## # A tibble: 5,137 x 3
## # Groups:   Fatalities [?]
##    Fatalities Location                               mean_Fatalities
##         <dbl> <chr>                                            <dbl>
##  1          0 300 nm NW of San Francisco, California               0
##  2          0 Amsterdam, Netherlands                               0
##  3          0 Anchorage, Alaska                                    0
##  4          0 Atlanta, Georgia                                     0
##  5          0 Bacolod, Philippines                                 0
##  6          0 Bangui, Central African Republic                     0
##  7          0 Bartlesville, Oklahoma                               0
##  8          0 Between Chungking and Shanghai, China                0
##  9          0 Boston, Massachusetts                                0
## 10          0 Burbank, Calilfornia                                 0
## # ... with 5,127 more rows

Type_means <- Air %>%
group_by(Fatalities,Type) %>%
summarize(mean_Fatalities = mean(Fatalities))
Type_means

## # A tibble: 4,235 x 3
## # Groups:   Fatalities [?]
##    Fatalities Type                       mean_Fatalities
##         <dbl> <chr>                                <dbl>
##  1          0 Airbus A300B4-622R                       0
##  2          0 Airbus A.320-214                         0
##  3          0 Airbus A320-214                          0
##  4          0 Airbus A-330-243                         0
##  5          0 Airbus A-340                             0
##  6          0 Antonov 12                               0
##  7          0 BAC One-Eleven 528FL                     0
##  8          0 Bell UH-1B Huey Helicopter               0
##  9          0 Boeing  377 Stratocruiser                0
## 10          0 Boeing 777-236ER                         0
## # ... with 4,225 more rows

Operator_means <- Air %>%
group_by(Fatalities,Operator) %>%
summarize(mean_Fatalities = mean(Fatalities))
Operator_means

## # A tibble: 4,370 x 3
## # Groups:   Fatalities [?]
##    Fatalities Operator                       mean_Fatalities
##         <dbl> <chr>                                    <dbl>
##  1          0 Aeroflot                                     0
##  2          0 Aeromexico                                   0
##  3          0 Air Canada                                   0
##  4          0 Aircraft Transport and Travel                0
##  5          0 Air France                                   0
##  6          0 American Airlines                            0
##  7          0 American International Airways               0
##  8          0 Ararat Avia                                  0
##  9          0 British Airways                              0
## 10          0 Canadian Air Transat                         0
## # ... with 4,360 more rows
…
